<svg xmlns="http://www.w3.org/2000/svg" xmlns:xlink="http://www.w3.org/1999/xlink" width="1925" height="753.75" viewBox="0 0 1925 753.75">
  <defs>
    <clipPath id="clip-path">
      <path id="Mask" d="M0,48.5H648.553L676,0h566l27.447,48.5H1920v666H0Z" transform="translate(0 0.5)" fill="#0c0f0b"/>
    </clipPath>
  </defs>
  <g id="Bitmap_Copy_2" data-name="Bitmap Copy 2" transform="translate(0 38.75)">
    <path id="Mask-2" data-name="Mask" d="M0,48.5H648.553L676,0h566l27.447,48.5H1920v666H0Z" transform="translate(5 -38.75)" fill="#0c0f0b"/>
  </g>
</svg>
